Test #1
Download: 91585.16 Kb/s
Upload: 87579.98 Kb/s
Ping: 4.374
Test #2
Download: 91924.26 Kb/s
Upload: 88348.53 Kb/s
Ping: 6.039
Test #3
Download: 91782.66 Kb/s
Upload: 85265.65 Kb/s
Ping: 2.894
